Evaluating Family Engagement and Disparities in Health Information Access through Patient Portal Use within a NICU
…
# Join with the epic_lookup_table to get descriptions
code_with_description <- code_frequencies %>%
  left_join(epic_lookup_table, by = c("MYC_UA_TYPE_C" = "Code"))

# View the result (top 50 most frequent actions)
top_actions <- code_with_description |>
  select(MYC_UA_TYPE_C, Description, Count) |>
  head(50)
top_actions

# A tibble: 50 × 3
   MYC_UA_TYPE_C Description           Count
           <int> <chr>                 <int>
 1            12 Visits               578019
 2            66 Inpatient Admissions 269426
 3           102 Proxy Context Enter  244982
 4             4 Test Result Details  235654
 5           272 Health Feed          213007
 6            41 Test Results List    201726
 7         96080 View Treatment Team  173287
 8           279 Explore More         163012
 9         96140 Load Consent List    138405
10           103 Proxy Context Exit   136980
# ℹ 40 more rows
…
# Fit the model
logistic_fit <-
  logistic_model |>
  fit(MyChart_Access ~ SEX + RACE + ETHNICITY + PREFERRED_LANGUAGE + PAYOR_GROUP +
    BIRTH_WEIGHT_GRAMS + NICU_LOS_DAYS + INBORN_IND + GESTATIONAL_AGE_TOTAL_DAYS + date_period
    , data = primary_model)

# Visualize information
tidy(logistic_fit)

# A tibble: 34 × 5
   term                                 estimate std.error statistic     p.value
   <chr>                                   <dbl>     <dbl>     <dbl>       <dbl>
 1 (Intercept)                           -2.12      0.362     -5.85      5.02e-9
 2 SEXM                                   0.0218    0.0570     0.383     7.02e-1
 3 RACEBlack or African American         -0.433     0.0805    -5.38      7.38e-8
 4 RACEOther                             -0.313     0.0979    -3.20      1.38e-3
 5 RACEMulti-Racial                      -0.118     0.121     -0.973     3.31e-1
 6 RACEAsian                             -0.0964    0.169     -0.569     5.69e-1
 7 RACEUnknown                           -0.882     0.316     -2.80      5.18e-3
 8 RACERefused                           -0.344     0.298     -1.15      2.49e-1
 9 RACEIndian                             0.219     0.304      0.720     4.72e-1
10 RACEAmerican Indian or Alaska Native   0.115     0.804      0.143     8.87e-1
# ℹ 24 more rows
…
logistic_training_pred <- bind_cols(
  truth = primary_model$MyChart_Access,
  predict(logistic_fit, primary_model, type = "class"),
  predict(logistic_fit, primary_model, type = "prob")
)

logistic_training_pred

# A tibble: 7,728 × 4
   truth     .pred_class `.pred_No Access` .pred_Accessed
   <fct>     <fct>                   <dbl>          <dbl>
 1 No Access No Access               0.869         0.131 
 2 Accessed  No Access               0.865         0.135 
 3 No Access <NA>                   NA            NA     
 4 No Access No Access               0.909         0.0908
 5 Accessed  No Access               0.863         0.137 
 6 No Access <NA>                   NA            NA     
 7 No Access No Access               0.915         0.0853
 8 Accessed  No Access               0.852         0.148 
 9 No Access No Access               0.865         0.135 
10 No Access No Access               0.895         0.105 
# ℹ 7,718 more rows
…
#Create a workflow() for fitting the glm
glm_wf <- workflow() |>
  add_model(logistic_model) |>
  add_formula(MyChart_Access ~ SEX + RACE + ETHNICITY + PREFERRED_LANGUAGE + PAYOR_GROUP +
    BIRTH_WEIGHT_GRAMS + NICU_LOS_DAYS + INBORN_IND + GESTATIONAL_AGE_TOTAL_DAYS + date_period)
  
#Use workflow to fit model with each fold of resampled data
glm_fit_cv <- glm_wf |>
  fit_resamples(pmodel_folds, control = control_resamples(save_pred = TRUE))

#Collect predictions out of folds into one tibble
pmodels_glm_cv_preds <- collect_predictions(glm_fit_cv)
pmodels_glm_cv_preds

# A tibble: 7,728 × 7
   .pred_class `.pred_No Access` .pred_Accessed id      .row MyChart_Access
   <fct>                   <dbl>          <dbl> <chr>  <int> <fct>         
 1 No Access               0.692         0.308  Fold01    43 No Access     
 2 No Access               0.720         0.280  Fold01    61 Accessed      
 3 No Access               0.829         0.171  Fold01    63 No Access     
 4 No Access               0.813         0.187  Fold01    68 No Access     
 5 No Access               0.864         0.136  Fold01    72 No Access     
 6 No Access               0.830         0.170  Fold01    74 No Access     
 7 No Access               0.850         0.150  Fold01    81 Accessed      
 8 No Access               0.915         0.0853 Fold01    89 No Access     
 9 No Access               0.812         0.188  Fold01    92 No Access     
10 No Access               0.825         0.175  Fold01    97 No Access     
# ℹ 7,718 more rows
# ℹ 1 more variable: .config <chr>
…
        OOB estimate of  error rate: 26.5%
Confusion matrix:
          No Access Accessed class.error
No Access      2150      869   0.2878437
Accessed        769     2394   0.2431236

pmodel.rf.pred.values <- bind_cols(
  truth = test_data$MyChart_Access,
  predict(rf_fit, test_data),
  predict(rf_fit, test_data, type = "prob")
)
pmodel.rf.pred.values

# A tibble: 1,546 × 4
   truth     .pred_class `.pred_No Access` .pred_Accessed
   <fct>     <fct>                   <dbl>          <dbl>
 1 No Access No Access               0.963          0.037
 2 Accessed  No Access               0.903          0.097
 3 No Access No Access               0.892          0.108
 4 Accessed  No Access               0.544          0.456
 5 No Access No Access               0.638          0.362
 6 No Access No Access               0.78           0.22 
 7 No Access No Access               0.837          0.163
 8 No Access No Access               0.964          0.036
 9 No Access No Access               0.937          0.063
10 No Access No Access               0.898          0.102
# ℹ 1,536 more rows
…
